<?xml version="1.0" standalone="no"?>
<!DOCTYPE svg PUBLIC "-//W3C//DTD SVG 1.1//EN" "http://www.w3.org/Graphics/SVG/1.1/DTD/svg11.dtd">
<svg xmlns="http://www.w3.org/2000/svg">
<metadata>Generated by Fontastic.me</metadata>
<defs>
<font id="mangalayojana-icons" horiz-adv-x="512">
<font-face font-family="mangalayojana-icons" units-per-em="512" ascent="480" descent="-32"/>
<missing-glyph horiz-adv-x="512" />

<glyph unicode="&#97;" d="M195 397c0-11 0-63 0-63l-47 0 0-78 47 0 0-230 95 0 0 230 65 0c0 0 6 37 8 78-8 0-72 0-72 0 0 0 0 45 0 53 0 8 10 19 21 19 10 0 31 0 52 0 0 10 0 47 0 80-27 0-58 0-71 0-100 0-98-77-98-89z"/>
<glyph unicode="&#99;" d="M256 37c-5 0-9 1-13 5l-178 172c-2 1-4 4-8 7-3 4-8 10-16 19-7 9-13 18-19 28-6 9-11 21-15 34-5 14-7 27-7 40 0 42 12 74 36 98 24 24 58 35 101 35 11 0 23-2 36-6 12-4 23-9 34-16 11-7 20-14 27-20 8-6 15-12 22-19 7 7 14 13 22 19 7 6 16 13 27 20 11 7 22 12 34 16 13 4 25 6 36 6 43 0 77-11 101-35 24-24 36-56 36-98 0-42-22-85-65-129l-178-171c-4-4-8-5-13-5z"/>
<glyph unicode="&#98;" d="M467 428c-58 57-151 58-211 4-60 54-153 53-211-4-60-60-60-156 0-215 17-17 177-175 177-175 19-19 49-19 68 0 0 0 175 173 177 175 60 59 60 155 0 215z m-23-192l-177-175c-6-7-16-7-22 0l-177 175c-47 46-47 122 0 169 45 45 118 47 166 4l22-20 22 20c48 43 121 41 166-4 47-47 47-123 0-169z m-296 156c0 0 0 0 0 0-38 0-68-30-68-68 0-4 4-8 8-8 4 0 8 4 8 8l0 0c0 29 23 52 52 52l0 0c4 0 8 4 8 8 0 4-4 8-8 8z"/>
<glyph unicode="&#100;" d="M352 416c-35 0-64-29-64-64 0-24 13-44 32-55l0-9c0-32-32-64-64-64-26 0-47-6-64-15l0 152c19 11 32 31 32 55 0 35-28 64-64 64-35 0-64-29-64-64 0-24 13-44 32-55l0-210c-19-11-32-31-32-55 0-35 29-64 64-64 36 0 64 29 64 64 0 17-6 32-17 44 10 11 25 20 49 20 64 0 128 64 128 128l0 9c19 11 32 32 32 55 0 36-28 64-64 64z m-192 32c18 0 32-15 32-32 0-18-14-32-32-32-17 0-32 14-32 32 0 17 15 32 32 32z m0-384c-17 0-32 14-32 32 0 17 15 32 32 32 18 0 32-15 32-32 0-18-14-32-32-32z m192 256c-17 0-32 14-32 32 0 17 15 32 32 32 18 0 32-15 32-32 0-18-14-32-32-32z"/>
<glyph unicode="&#102;" d="M411 167l-182 0 0 0c0 0 0 0 0 0-6 0-11-6-11-12 0 0 0 0 0-1l0-53 0 0c0-6 5-11 11-11l0 0 182 0 0 0c6 0 11 5 11 11l0 53c0 1 0 1 0 1 0 6-5 12-11 12z m-256 0l-54 0c-6 0-11-6-11-12l0-54c0-6 5-11 11-11l54 0c6 0 12 5 12 11l0 54c0 6-6 12-12 12z m256 128l-182 0 0 0c0 0 0 0 0 0-6 0-11-6-11-12 0 0 0 0 0-1l0-53 0 0c0-6 5-11 11-11l0 0 182 0 0 0c6 0 11 5 11 11l0 53c0 1 0 1 0 1 0 6-5 12-11 12z m-256 0l-54 0c-6 0-11-6-11-12l0-54c0-6 5-11 11-11l54 0c6 0 12 5 12 11l0 54c0 6-6 12-12 12z m63 62l0 0c0-6 5-12 11-12l0 0 182 0 0 0c6 0 11 6 11 12l0 53c0 0 0 0 0 1 0 6-5 11-11 11l0 0-182 0 0 0c0 0 0 0 0 0-6 0-11-5-11-11 0-1 0-1 0-1l0-53z m-63 65l-54 0c-6 0-11-5-11-11l0-54c0-6 5-12 11-12l54 0c6 0 12 6 12 12l0 54c0 6-6 11-12 11z"/>
<glyph unicode="&#103;" d="M155 422l-54 0c-6 0-11-5-11-11l0-54c0-6 5-12 11-12l54 0c6 0 12 6 12 12l0 54c0 6-6 11-12 11z m128 0l-54 0c-6 0-11-5-11-11l0-54c0-6 5-12 11-12l54 0c6 0 11 6 11 12l0 54c0 6-5 11-11 11z m139-11c0 6-5 11-11 11l-54 0c-6 0-12-5-12-11l0-54c0 0 0 0 0 0 0-6 6-12 12-12l54 0c6 0 11 6 11 12l0 54z m-267-117l-54 0c-6 0-11-5-11-11l0-54c0-6 5-11 11-11l54 0c6 0 12 5 12 11l0 54c0 6-6 11-12 11z m128 0l-54 0c-6 0-11-5-11-11l0-54c0-6 5-11 11-11l54 0c6 0 11 5 11 11l0 54c0 6-5 11-11 11z m128 0l-54 0c-6 0-12-5-12-11l0-54c0 0 0 0 0 0 0-6 6-11 12-11l54 0c6 0 11 5 11 11l0 54c0 6-5 11-11 11z m-256-127l-54 0c-6 0-11-6-11-12l0-54c0-6 5-11 11-11l54 0c6 0 12 5 12 11l0 54c0 6-6 12-12 12z m128 0l-54 0c-6 0-11-6-11-12l0-54c0-6 5-11 11-11l54 0c6 0 11 5 11 11l0 54c0 6-5 12-11 12z m128 0l-54 0c-6 0-12-6-12-12l0-54c0-6 6-11 12-11l54 0c6 0 11 5 11 11l0 54c0 6-5 12-11 12z"/>
<glyph unicode="&#101;" d="M91 128c0 5-1 9-5 13-4 3-8 5-13 5-5 0-9-2-13-5-3-4-5-8-5-13 0-5 2-9 5-13 4-4 8-5 13-5 5 0 9 1 13 5 4 4 5 8 5 13z m46 146l0-183c0-5-2-9-5-12-4-4-8-6-13-6l-82 0c-5 0-10 2-13 6-4 3-6 7-6 12l0 183c0 5 2 10 6 13 3 4 8 6 13 6l82 0c5 0 9-2 13-6 3-3 5-8 5-13z m338 0c0-16-5-30-15-42 3-9 4-16 4-22 1-14-4-28-12-39 3-11 3-22 0-34-3-10-8-19-16-26 2-22-3-39-14-52-12-15-31-22-56-22l-37 0c-12 0-26 1-41 4-15 3-26 6-35 8-8 3-19 7-34 12-24 8-39 12-45 12-5 0-10 2-13 6-4 3-6 7-6 12l0 184c0 4 2 8 6 12 3 4 7 5 12 6 4 0 12 6 22 17 9 11 19 22 28 34 13 17 23 28 29 35 4 3 7 8 9 13 3 6 4 11 5 14 1 4 2 9 4 17 1 8 3 14 4 18 1 4 2 9 5 15 3 5 6 10 10 14 3 4 8 5 13 5 8 0 16-1 23-3 7-2 13-4 17-7 5-3 9-7 12-12 3-4 5-9 7-12 1-4 2-9 3-15 1-5 1-10 2-13 0-2 0-6 0-11 0-7-1-14-3-21-2-8-4-13-5-18-2-4-5-9-8-16-1-1-2-2-3-5-1-2-3-4-3-6-1-2-2-4-3-7l80 0c14 0 27-5 38-16 11-11 16-24 16-39z"/>
<glyph unicode="&#104;" d="M91 347c0-5-1-9-5-12-4-4-8-6-13-6-5 0-9 2-13 6-3 3-5 7-5 12 0 6 2 10 5 13 4 4 8 6 13 6 5 0 9-2 13-6 4-3 5-7 5-13z m46-146l0 183c0 5-2 9-5 13-4 3-8 5-13 5l-82 0c-5 0-10-2-13-5-4-4-6-8-6-13l0-183c0-5 2-9 6-13 3-3 8-5 13-5l82 0c5 0 9 2 13 5 3 4 5 8 5 13z m323 43c10-12 15-26 15-43 0-15-5-28-16-38-11-11-24-17-38-17l-80 0c1-2 2-5 3-7 0-1 2-4 3-6 1-2 2-4 3-5 3-7 6-12 7-16 2-4 4-10 6-17 2-7 3-15 3-22 0-4 0-8 0-11-1-3-1-7-2-13-1-6-2-10-3-14-2-4-4-8-7-13-3-5-7-9-12-12-4-3-10-5-17-7-7-2-15-3-23-3-5 0-10 2-13 5-4 4-7 9-10 15-3 5-4 10-5 15-1 4-3 10-4 17-2 8-3 14-4 17-1 4-2 8-5 14-2 6-5 10-9 14-6 6-16 18-29 34-9 12-19 24-28 35-10 11-18 16-22 17-5 0-9 2-12 5-4 4-6 8-6 13l0 183c0 5 2 9 6 13 3 3 8 5 13 5 6 0 21 5 45 13 15 5 26 9 34 11 9 3 20 5 35 8 15 3 29 5 41 5l37 0c25-1 44-8 56-22 11-14 16-31 14-52 8-7 13-16 16-27 3-12 3-23 0-33 8-12 13-25 12-40 0-6-1-13-4-21z"/>
<glyph unicode="&#105;" d="M210 101c0-3-1-5-3-7l-91-91c-2-2-4-3-6-3-3 0-5 1-7 3l-91 91c-3 3-4 6-2 10 1 4 4 6 8 6l55 0 0 393c0 3 1 5 3 6 1 2 4 3 6 3l55 0c3 0 5-1 7-3 1-1 2-3 2-6l0-393 55 0c3 0 5-1 7-3 1-2 2-4 2-6z m302-37l0-55c0-3-1-5-3-6-1-2-3-3-6-3l-238 0c-3 0-5 1-6 3-2 1-3 3-3 6l0 55c0 3 1 5 3 7 1 1 3 2 6 2l238 0c3 0 5-1 6-2 2-2 3-4 3-7z m-55 146l0-55c0-2-1-4-2-6-2-2-4-3-7-3l-183 0c-3 0-5 1-6 3-2 2-3 4-3 6l0 55c0 3 1 5 3 7 1 2 3 2 6 2l183 0c3 0 5 0 7-2 1-2 2-4 2-7z m-55 147l0-55c0-3-1-5-2-7-2-2-4-2-7-2l-128 0c-3 0-5 0-6 2-2 2-3 4-3 7l0 55c0 2 1 4 3 6 1 2 3 3 6 3l128 0c3 0 5-1 7-3 1-2 2-4 2-6z m-55 146l0-55c0-3 0-5-2-7-2-1-4-2-7-2l-73 0c-3 0-5 1-6 2-2 2-3 4-3 7l0 55c0 3 1 5 3 6 1 2 3 3 6 3l73 0c3 0 5-1 7-3 2-1 2-3 2-6z"/>
<glyph unicode="&#106;" d="M359 395l50 0-20 63-4 13c0 3 0 5 0 6l-2 0 0-6c0 0-1-2-1-5-1-3-2-6-3-8z m-130-294c0-3-1-5-3-7l-91-91c-2-2-5-3-7-3-2 0-4 1-7 3l-91 91c-3 3-4 6-2 10 2 4 4 6 9 6l54 0 0 393c0 3 1 5 3 6 2 2 4 3 7 3l54 0c3 0 5-1 7-3 2-1 3-3 3-6l0-393 54 0c3 0 5-1 7-3 2-2 3-4 3-6z m238-34l0-67-166 0 0 26 105 151c2 3 4 6 6 8l3 2 0 1c0 0-1 0-2 0-1 0-1 0-2 0-2-1-5-1-8-1l-67 0 0-33-34 0 0 65 162 0 0-25-105-151c-2-2-4-4-6-8l-4-3 0-1 4 1c2 0 5 1 9 1l71 0 0 34z m26 256l0-30-82 0 0 30 21 0-13 41-70 0-13-41 21 0 0-30-82 0 0 30 20 0 66 189 46 0 66-189z"/>
<glyph unicode="&#107;" d="M347 384l0-256c0-5-1-9-5-13-4-3-8-5-13-5-5 0-9 2-13 5l-128 128c-3 4-5 8-5 13 0 5 2 9 5 13l128 128c4 3 8 5 13 5 5 0 9-2 13-5 4-4 5-8 5-13z"/>
<glyph unicode="&#108;" d="M329 256c0-5-2-9-5-13l-128-128c-4-3-8-5-13-5-5 0-9 2-13 5-4 4-5 8-5 13l0 256c0 5 1 9 5 13 4 3 8 5 13 5 5 0 9-2 13-5l128-128c3-4 5-8 5-13z"/>
<glyph unicode="&#109;" d="M55 37l402 0 0 292-402 0z m110 347l0 82c0 3-1 5-3 7-2 2-4 2-7 2l-18 0c-3 0-5 0-6-2-2-2-3-4-3-7l0-82c0-3 1-5 3-7 1-1 3-2 6-2l18 0c3 0 5 1 7 2 2 2 3 4 3 7z m219 0l0 82c0 3-1 5-3 7-1 2-3 2-6 2l-18 0c-3 0-5 0-7-2-2-2-3-4-3-7l0-82c0-3 1-5 3-7 2-1 4-2 7-2l18 0c3 0 5 1 6 2 2 2 3 4 3 7z m110 18l0-365c0-10-4-19-11-26-7-7-16-11-26-11l-402 0c-10 0-19 4-26 11-7 7-11 16-11 26l0 365c0 10 4 19 11 26 7 7 16 11 26 11l36 0 0 27c0 13 5 24 14 33 9 9 20 13 32 13l18 0c13 0 24-4 33-13 9-9 13-20 13-33l0-27 110 0 0 27c0 13 4 24 13 33 9 9 20 13 33 13l18 0c12 0 23-4 32-13 9-9 14-20 14-33l0-27 36 0c10 0 19-4 26-11 7-7 11-16 11-26z"/>
<glyph unicode="&#63;" d="M224 128l64 0 0 64-64 0z m32 256c-48 0-96-48-96-96l64 0c0 16 16 32 32 32 16 0 32-16 32-32 0-32-64-32-64-64l64 0c32 11 64 32 64 80 0 48-48 80-96 80z m0 128c-141 0-256-115-256-256 0-142 115-256 256-256 142 0 256 114 256 256 0 141-114 256-256 256z m0-448c-106 0-192 86-192 192 0 106 86 192 192 192 106 0 192-86 192-192 0-106-86-192-192-192z"/>
<glyph unicode="&#110;" d="M430 102c0 9-7 16-15 16l-318 0c-8 0-15-7-15-16l0-19c0-9 7-16 15-16l318 0c8 0 15 7 15 16z m-304 213l0 0 0 0c-3 3-7 4-11 4-9 0-16-7-17-16l0 0 0-150 1 0c0-8 7-15 16-15 0 0 0 0 0 0l0 0 282 0 0 1c0 0 0 0 0 0 8 0 15 6 16 14l1 0 0 2c0 0 0 0 0 0l0 145c0 1 0 2 0 3 0 10-8 17-17 17-4 0-7-1-10-4l0 0-1 0c0-1-1-1-1-2l-36-35-81 81 0 0c-3 3-7 5-12 5-5 0-9-2-12-5l0 0-82-81-34 35c-1 0-1 1-2 1z m248-43l0 0-1 0z m-229 101c0-17-13-31-31-31-17 0-31 14-31 31 0 17 14 31 31 31 18 0 31-14 31-31z m282 0c0-17-14-31-31-31-17 0-31 14-31 31 0 17 14 31 31 31 17 0 31-14 31-31z m-138 41c0-17-14-31-31-31-17 0-31 14-31 31 0 17 14 31 31 31 17 0 31-14 31-31z"/>
<glyph unicode="&#111;" d="M448 256c0 106-86 192-192 192-106 0-192-86-192-192 0-106 86-192 192-192 34 0 66 9 94 25 3 1 5 4 5 7 0 3-2 6-4 7l0 0-34 21 0 0c-1 1-3 2-5 2-1 0-2 0-3-1l0 0c-17-6-34-10-53-10-78 0-141 63-141 141 0 78 63 141 141 141 73 0 134-56 140-128 0-51-22-80-39-80-10 0-17 7-17 21 0 2 1 8 1 11l22 101-1 0c0 1 1 1 1 2 0 3-3 6-7 6l-37 0c-4 0-6-2-7-5l0 0-4-18c-9 17-28 30-56 30-52 0-102-50-102-111 0-43 26-75 70-75 24 0 49 14 65 36l0-3c4-17 51-39 78-39 39 0 85 27 85 102l0 0c0 3 0 6 0 9z m-158-35c-10-14-26-30-50-30-23 0-37 16-37 40 0 33 26 65 62 65 20 0 32-13 36-23z"/>
<glyph unicode="&#112;" d="M41 377c-11 6-16 13-14 20 0 5 5 7 13 7 0 0 433 0 433 0 13 0 16-5 10-16-2-5-6-8-12-11-5-2-38-20-98-52-61-33-92-50-93-51-6-3-14-5-24-5-10 0-17 2-24 5-1 1-32 18-93 51-60 32-93 50-98 52m435-51c7 3 10 1 10-5 0 0 0-189 0-189 0-5-2-11-8-16-6-6-12-8-17-8 0 0-410 0-410 0-5 0-11 2-17 8-5 5-8 11-8 16 0 0 0 189 0 189 0 6 3 8 10 5 0 0 196-103 196-103 7-3 14-5 24-5 10 0 17 2 24 5 0 0 196 103 196 103"/>
<glyph unicode="&#113;" d="M388 341l-264 0c-7 0-12-5-12-12l0-256c0-6 5-12 12-12l264 0c7 0 12 6 12 12l0 256c0 7-5 12-12 12z m17 82l-101 0 0 16c0 6-5 12-12 12l-72 0c-7 0-12-6-12-12l0-16-100 0c-7 0-13-5-13-12l0-35c0-7 6-13 13-13l297 0c6 0 12 6 12 13l0 35c0 7-6 12-12 12z"/>
<glyph unicode="&#114;" d="M486 82c-29 52-64 85-106 101-42 15-98 23-169 23 0 0 0-112 0-112 0 0-185 171-185 171 0 0 185 165 185 165 0 0 0-98 0-98 31 0 59-5 86-14 27-9 49-21 67-36 18-15 35-31 49-49 15-17 27-35 36-53 8-18 16-34 22-48 6-15 10-27 12-36 0 0 3-14 3-14"/>
<glyph unicode="&#115;" d="M503 112l-219 383c-6 10-17 16-28 16-11 0-22-6-28-16l-219-383c-6-10-6-22 0-32 6-10 16-16 28-16l438 0c12 0 22 6 28 16 6 10 6 22 0 32z m-215 16l-64 0 0 64 64 0z m0 96l-64 0 0 128 64 0z"/>
<glyph unicode="&#116;" d="M256 512c-59 0-107-48-107-107l0-266c0-6 5-11 11-11l85 0 0-117c0-6 5-11 11-11 6 0 11 5 11 11l0 117 85 0c6 0 11 5 11 11l0 266c0 59-48 107-107 107z m85-363l-170 0 0 256c0 47 38 86 85 86 47 0 85-39 85-86z m-42 128l0 86c0 17-15 32-32 32-18 0-32-15-32-32 0-6-5-11-11-11-6 0-11 5-11 11l0 42c0 6-4 11-10 11-6 0-11-5-11-11l0-42c0-18 14-32 32-32 18 0 32 14 32 32 0 6 5 10 11 10 6 0 10-4 10-10l0-86c0-17 15-32 32-32 6 0 11 5 11 11 0 6-5 11-11 11-6 0-10 4-10 10z"/>
<glyph unicode="&#117;" d="M317 142c62-22 93-42 93-62 0 0 0-54 0-54 0 0-410 0-410 0 0 0 0 103 0 103 12 5 26 9 42 13 32 12 54 24 66 36 12 12 18 28 18 48 0 8-4 16-12 25-8 9-13 21-16 38 0 4-4 8-11 13-8 4-12 14-13 31 0 5 1 10 2 13 2 4 4 6 5 6 0 0 2 2 2 2-3 17-5 32-6 45-2 19 5 38 20 58 16 19 43 29 82 29 39 0 66-10 82-29 16-20 23-39 22-58 0 0-8-45-8-45 7-2 10-10 10-21-1-10-3-17-5-22-2-5-5-8-7-9-2-1-5-2-7-4-3-2-4-5-5-9-3-16-9-28-17-38-8-9-12-17-12-25 0-20 7-36 19-48 12-12 34-24 66-36m118 140c0 0 77 0 77 0 0 0 0-52 0-52 0 0-77 0-77 0 0 0 0-76 0-76 0 0-51 0-51 0 0 0 0 76 0 76 0 0-77 0-77 0 0 0 0 52 0 52 0 0 77 0 77 0 0 0 0 76 0 76 0 0 51 0 51 0 0 0 0-76 0-76"/>
<glyph unicode="&#118;" d="M512 31c0 0-115 0-115 0 0 0 0 77 0 77 0 18-5 32-15 41-10 9-37 24-79 46 14 10 21 24 21 43 0 5-3 11-7 16-5 6-8 15-10 27 0 2-3 5-7 8-4 2-6 10-7 21 0 8 2 14 6 16-2 11-3 21-4 30-1 13 2 27 12 40 9 14 25 21 48 21 24 0 40-7 49-21 10-13 14-27 13-40 0 0-4-30-4-30 4-2 6-8 6-16-1-11-3-19-7-21-4-3-7-6-8-8-2-12-5-21-9-27-5-5-7-11-7-16 0-15 4-26 11-34 7-8 20-17 39-25 39-16 61-29 67-41 2-2 3-13 4-31 1-18 2-35 3-52 0 0 0-24 0-24m-250 134c62-27 93-48 93-64 0 0 0-70 0-70 0 0-355 0-355 0 0 0 0 94 0 94 0 15 14 28 43 40 26 11 44 22 53 33 10 11 15 26 15 45 0 7-4 14-10 22-7 8-11 20-13 35-1 3-4 7-9 11-6 4-9 14-10 29 0 5 0 9 1 12 1 3 2 5 4 6 0 0 2 1 2 1-2 16-4 30-5 42-2 17 4 35 17 53 12 18 34 27 65 27 30 0 52-9 65-27 12-18 18-36 16-53 0 0-5-42-5-42 5-2 8-9 8-19-2-15-5-25-11-29-5-4-8-8-9-11-2-15-6-27-13-35-6-8-9-15-9-22 0-19 4-34 14-45 9-11 27-22 53-33"/>
</font></defs></svg>
